{
    "status": "ACTIVE",
    "iconId": "d3de285b-afa3-4cbd-a4ad-26369c03e087",
    "adminAreaTranslations": [
        {
            "name": "Test data 1 en",
            "description": "description 1 en",
            "remarks": "remarks 1 en",
            "languageCode": "en"
        },
        {
            "name": "Test data 1 de",
            "description": "description 1 de",
            "remarks": "remarks 1 de",
            "languageCode": "de"
        }
    ]
}
