{
  "directoryRelRequests": [
    {
      
      "directoryId": "120f21a0-b60a-4ff5-8b07-da2998f0f0d7",
      "objectType": "PROJECT",
      "objectId": "eaf9c024-e812-48c1-bf04-fcada75f8fe9"
      
    },
    {
      
      "directoryId": "120f21a0-b60a-4ff5-8b07-da2998f0f0d7",
      "objectType": "USER",
      "objectId": "7C5B12C1-485C-4190-97B0-DCD873BC1742"
      
    },
    {
      
      "directoryId": "120f21a0-b60a-4ff5-8b07-da2998f0f0d7",
      "objectType": "PROJECTAPPLICATION",
      "objectId": "07d3991d-396a-479d-833d-69e5bef4d73b"
      
    },
    {
      
      "directoryId": "120f21a0-b60a-4ff5-8b07-da2998f0f0d7",
      "objectType": "USERAPPLICATION",
      "objectId": "07d3991d-396a-479d-833d-69e5bef4d111"
      
    }
  ]
}