{
  "id": "f61dcb93-a8bd-4b8e-9d4a-0f0b3d5bb91c",
  "iconId": "6aa8a6e5-dc29-4e27-b5e9-7768dcdd6fc8",
  
  "directoryTranslations": [
    {
      "id": "a1de6163-d2ac-4d53-8273-673e8e6d543e",
      "name": "dir1_en",
      "description": "description1_1",
      "remarks": "remarks1_mf",
      "languageCode": "en"
     
    },
    {
      "id": "8fb3dcad-b3d8-41e5-9063-afaf6e7dfb36",
      "name": "dir1_de",
      "description": "description1",
      "remarks": "remarks1_mf",
      "languageCode": "de"
      
    }
  ]
  
}